{
  "type": "mysql",
  "username": "homestead",
  "password": "secret",
  "host": "localhost",
  "port": 3306,
  "database": "homestead",
  "entities": ["src/**/**/*.entity{.ts,.js}"],
  "migrations": ["src/database/migrations/*{.ts,.js}"],
  "seeds": ["src/database/seeds/*{.ts,.js}"],
  "factories": ["src/database/factories/*{.ts,.js}"],
  "cli": {
    "migrationsDir": "src/database/migrations"
  }
}
